^E:\UNREALPROJECTS\HELLOWORLD\DEBUG\HELLOWORLD.OBJ
E:\UNREALPROJECTS\HELLOWORLD\DEBUG\HELLOWORLD.ILK
E:\UNREALPROJECTS\HELLOWORLD\DEBUG\HELLOWORLD.EXE
E:\UNREALPROJECTS\HELLOWORLD\DEBUG\HELLOWORLD.PDB
